﻿{
  "ReRoutes": [

    {
      "DownstreamPathTemplate": "/api/{version}/{everything}",
      "DownstreamScheme": "http",
      "DownstreamHostAndPorts": [
        {
          "Host": "localhost",
          "Port": 5000
        }
      ],
      "UpstreamPathTemplate": "/api/{version}/{everything}",
      "UpstreamHttpMethod": [ "POST", "GET" ]
    },


    {
      "DownstreamPathTemplate": "/api/YouTubeMusic/post",
      "DownstreamScheme": "http",
      "DownstreamHostAndPorts": [
        {
          "Host": "localhost",
          "Port": 8006
        }
      ],
      "UpstreamPathTemplate": "/youtube",
      "UpstreamHttpMethod": [ "POST", "GET" ]
    },



    {
      "DownstreamPathTemplate": "/api/YouTubeMusic/PostYouTube",
      "DownstreamSche me": "http",
      "DownstreamHostAndPorts": [
        {
          "Host": "localhost",
          "Port": 8006
        }
      ],
      "UpstreamPathTemplate": "/GetPlayList",
      "UpstreamHttpMethod": [ "POST", "GET" ]
    },

    {
      "DownstreamPathTemplate": "/api/YouTubeMusic/CreatePlayList",
      "DownstreamScheme": "http",
      "DownstreamHostAndPorts": [
        {
          "Host": "localhost",
          "Port": 8006
        }
      ],
      "UpstreamPathTemplate": "/CreatePlayList",
      "UpstreamHttpMethod": [ "POST", "GET" ]
    },







    {
      "DownstreamPathTemplate": "/api/deezer/get-tracks",
      "DownstreamScheme": "http",
      "DownstreamHostAndPorts": [
        {
          "Host": "localhost",
          "Port": 8001
        }
      ],
      "UpstreamPathTemplate": "/deezer",
      "UpstreamHttpMethod": [
        "GET"
      ]
    },

    {
      "DownstreamPathTemplate": "/api/deezer/{catchAll}",
      "DownstreamScheme": "https",
      "DownstreamHostAndPorts": [
        {
          "Host": "127.0.0.1",
          "Port": 80
        }
      ],
      "UpstreamPathTemplate": "/deezer/{catchAll}",
      "UpstreamHttpMethod": [
        "GET"
      ]
    },
    {
      "DownstreamPathTemplate": "/api/spotify",
      "DownstreamScheme": "http",
      "DownstreamHostAndPorts": [
        {
          "Host": "172.18.0.2",
          "Port": 80
        }
      ],
      "UpstreamPathTemplate": "/spotify",
      "UpstreamHttpMethod": [
        "GET"
      ]
    },
    {
      "DownstreamPathTemplate": "/api/spotify/{catchAll}",
      "DownstreamScheme": "http",
      "DownstreamHostAndPorts": [
        {
          "Host": "172.18.0.2",
          "Port": 80
        }
      ],
      "UpstreamPathTemplate": "/spotify/{catchAll}",
      "UpstreamHttpMethod": [
        "GET"
      ]
    },




    {
      "DownstreamPathTemplate": "/api/auth/{catchAll}",
      "DownstreamScheme": "http",
      "DownstreamHostAndPorts": [
        {
          "Host": "172.18.0.4",
          "Port": 80
        }
      ],
      "UpstreamPathTemplate": "/auth/{catchAll}",
      "UpstreamHttpMethod": [
        "GET"
      ]
    },



    {
      "DownstreamPathTemplate": "/api/sync/",
      "DownstreamScheme": "http",
      "DownstreamHostAndPorts": [
        {
          "Host": "localhost",
          "Port": 8001
        }
      ],
      "UpstreamPathTemplate": "/sync/",
      "UpstreamHttpMethod": [
        "GET"
      ]
    },


    {
      "DownstreamPathTemplate": "/api/sync/{catchAll}",
      "DownstreamScheme": "http",
      "DownstreamHostAndPorts": [
        {
          "Host": "172.18.0.5",
          "Port": 80
        }
      ],
      "UpstreamPathTemplate": "/sync/{catchAll}",
      "UpstreamHttpMethod": [
        "GET"
      ]
    }


  ],
  "AuthenticationOptions": {
    "AuthenticationProviderKey": "MusicSync",
    "AllowedScopes": []
  },
  "GlobalConfiguration": {
    "BaseUrl": "https://localhost:7000"

  }
}